{
  "id": "my_flask_app",
  "deploy_key": {
    "encrypted_data": "aw8y7AjuvXgdYvl+nJsBH9IgTARYUM3gdEI1Ug42iD88h85iDDtWRzDoTK4j\nicS3odAH5zknfXaoF9VR912yE/MwS6l13e10BzIoQBHhQDh5b1KijhvP8tfv\n0npapGuzOUbcB6JIezOx1QFcbWIrObU7EENPx6m8Ekk7fDQtl4kRPAN4woOa\nXaVR+K2Ki+flC9KK0xmYX4oHxfiOKnUorHQTMWIE4GrpSE28qSSm3ngM7geK\nJWQ/P5FsSfUfaa/JzIiSyOdGdkK9d0TV/Q25eK1t/GhBbBPjbkbcV1bnyLv8\n6RZDvoLLmFbj0O+0VFn5uRZNZ3xzPVtW1GRjNMfQb/C+Q9S9Nd+2CPyoiWe2\n2+zAoivnktpHG+4Hu+OGHu3ej0iCeBHapnz6o3zC3iuCbIjNN4r/QHOJ0JOs\no1ig5j3rM7RZ3vAkr8T6Hi8VScLMqXANhQIiTUUhZTpc8piu2lOdFYp+o/8n\na+xPUKVGlgUIrF0nrxK84JpvLx0aomAXqMKFXgBbV6dqlTxmVTD65hLFPcF7\niuBqVNDY5XD1S+BrehkWLOyXVXf+oFUPTV7WO8MdUl9ikcHAWHn3oafXHaNZ\nFFd9COy5FYxJzpzDb6yTck0TkxPfLFs+dY8R7m2up7/Sk2rgQvv2behy9AOH\nd/LrUIAIV4W1tFudQsFTMX6FEHniEEYNBBInIIPvS9BmPfMcl64ex7K6k8VM\nHCGonuos0LJpIEBbx6WCIEhd2s0I4C2zWzlVTnGRYgPvyOh96xo2ezCGt2lv\nMV6yG7T/BZ8m0Ra7Wta47YWLJ0wgMEW1u9j8DVyhUSuZO5drF4JakKVm/M7k\nk9iYF5VeDAKsyUCF/+T+Lv2lqGrL8poXrYwivZHGOlgjlCEQhMlBewxqw5lo\nVuJL7OXfXThqaJTt80eaJ1gPYrQPrFTiPshV0soE6UDev2iOFxC22cbx9ORZ\n/GtxQHean0WlcwoCR1xG7yVACudqbXwnOFllKJIIBflzo95tqsRTXcTtbn9K\nc/FaSjaqKvU2jus07oT6KphQjZc6H3dwisfEok037knli4vLTCpiHz/v7PdD\n8H2808mOQrr2gwE9sfJgXFQCqL1UWeac+oQrQBUB8ey2eU1Ndrvmf/EyxjdM\np/shCLRgNVKRzQYtPcKNiohYrI1kfL+s7d2XnHrsGePMk9cX6TMYYJiO7u2N\n9yuiXtBtuaS9Q2SqFt5Vft87kZcek5Z0Q7t2p6Oc4/nmTWZ8VqzYKrfBBFNa\nHHM1LkDSVXoB+MQw2z0UZysK1HUAF2FBzFzryfRmrcT9QG1d72fiIeZKrGbt\nAv2RFOUloRlAmda/nmN+K5PuzTO3vQa01yKRHkQUdbLhrFIn+XfSh5jqOsEk\nHerDg8BrilbXEsB3LWhzX2i7ChVS3xmwSoATjpM2Lpl6gurEo48KKErcv8cN\n+AO13i40J6MVplJXSuldMMXTDoLAkHLCdsfTycDGApoRn16A5novOEE9eIt6\ntntHYNPFL/HxW2URI0kPZjckAUkPjY2cHVVxo/Yg1qnR1aEEi2yi2RHteNq9\nkEIH8uEEjO0DNx193Jw5Ry9ahGl6Lm7FACE6BnXP1JYaRYn2QV6Bw7BQ6+5z\n1DL9ibN7x2m5WGEFMY/kdZzaFAIXZ2vxVdPthN4UlK4tFOe/lCsVJbrJCuSh\n1SZaMwrhQLWXqnQZZsibTQ0NNINMAJIU3yaRmZ+zectp6RHpT9Gcr2L9SPlX\n/0l0XfdOCa7xJsnh5PyGTlM9d15FcNViK2fKp04mR2pI+d48v0YhKSyDBSRD\ngfbm77pc6lnxCJPik0c1f4lQmtHm1CTR/qSx/nSIvbsiG7aBuoI8BW/rKdIq\n2T7fqqzaRWtKtim6012O/3ylevrEop4G39WjJ4X8ASL1EH8taWwsOlqKCDjB\nEf4rPm1L0wxFk2P20EyF14njabT1Ld4yKEFQZDMir4ZCpTe3T1V+tnTEiK84\nyVrNL8PVM7vU7r4tXuGeUNJ9woq0hqsrXz20kWTMo8WpoGfmEcZ/hfDtjOUV\naz0yKVozUUHBFiAzu2ajXyGchi7qoLpHdo8zrW7OL33HYBEJiKR8CVeLIzWx\nhnj/MzjSZowT0duOhcS9GY7wilZ2W5aDniw2PvTFcSInFMQJSb1/Wufs/yzG\nbEYBGzo0of57tFTlUrQ3H/D7XtDkB4uzzZNUrSjS1N2Qy8bPe3uauQ12TePT\nO086OSLtaA5dgZTT1DBakR/+pzAEuPGLxPoZXYMMO058YbE8DC6Uo8GCYdSy\nrCuKGZdB0XihZNOTrv1UaZz2\n",
    "iv": "mLBIY8wVs6lxJuaAFbiT/w==\n",
    "version": 1,
    "cipher": "aes-256-cbc"
  }
}